…
── MCMC Convergence Diagnostics 
Number of chains: 2
Samples per chain: "10, 10"
Diagnostics cover regression coefficients and variance components.
✔ All parameters converged (R-hat < 1.1)
> dim(fit_pll$BETA)        # [iter * n_chains, p, T]
[1] 20  4  4
> fit_pll$chain_indicator  # length iter * n_chains
 [1] 1 1 1 1 1 1 1 1 1 1 2 2 2 2 2 2 2 2 2 2
> if (requireNamespace("posterior", quietly = TRUE)) {
+   posterior::summarise_draws(posterior::as_draws(fit_pll))
+ }
# A tibble: 21 × 10
   variable      mean median     sd    mad     q5    q95  rhat ess_bulk ess_tail
   <chr>        <dbl>  <dbl>  <dbl>  <dbl>  <dbl>  <dbl> <dbl>    <dbl>    <dbl>
 1 intercept[… 0.0619 0.0626 0.0225 0.0252 0.0290 0.0875  1.01       10       10
 2 X1_dyad[t1] 0.448  0.457  0.0608 0.0548 0.339  0.530   1.89       10       10
 3 X2_dyad[t1] 0.545  0.573  0.0757 0.0547 0.405  0.642   1.89       10       10
 4 X3_dyad[t1] 0.652  0.668  0.0850 0.0878 0.502  0.779   1.85       10       10
 5 intercept[… 0.0619 0.0626 0.0225 0.0252 0.0290 0.0875  1.01       10       10
 6 X1_dyad[t2] 0.424  0.431  0.0569 0.0525 0.322  0.499   1.72       10       10
 7 X2_dyad[t2] 0.521  0.527  0.0745 0.0857 0.391  0.613   1.75       10       10
 8 X3_dyad[t2] 0.655  0.673  0.0848 0.0952 0.499  0.748   1.63       10       10
 9 intercept[… 0.0619 0.0626 0.0225 0.0252 0.0290 0.0875  1.01       10       10
10 X1_dyad[t3] 0.430  0.417  0.0683 0.0937 0.347  0.519   1.70       10       10
# ℹ 11 more rows
…
