Run LAME (longitudinal AME) with multiple parallel chains — lame_parallel • lame
…
#> ── MCMC Convergence Diagnostics 
#> Number of chains: 2
#> Samples per chain: "320, 320"
#> Diagnostics cover regression coefficients and variance components.
#> ! 1 parameter have R-hat >= 1.1
#> rho: R-hat = 3.118
dim(fit_pll$BETA)        # [iter * n_chains, p, T]
#> [1] 40  4  4
fit_pll$chain_indicator  # length iter * n_chains
#>  [1] 1 1 1 1 1 1 1 1 1 1 1 1 1 1 1 1 1 1 1 1 2 2 2 2 2 2 2 2 2 2 2 2 2 2 2 2 2 2
#> [39] 2 2
if (requireNamespace("posterior", quietly = TRUE)) {
  posterior::summarise_draws(posterior::as_draws(fit_pll))
}
#> # A tibble: 21 × 10
#>    variable       mean median     sd    mad     q5   q95  rhat ess_bulk ess_tail
#>    <chr>         <dbl>  <dbl>  <dbl>  <dbl>  <dbl> <dbl> <dbl>    <dbl>    <dbl>
#>  1 intercept[t… 0.0846 0.0837 0.0256 0.0276 0.0442 0.127  1.17    12.7      49.6
#>  2 X1_dyad[t1]  0.557  0.559  0.0806 0.0839 0.428  0.668  1.73     4.66     43.9
#>  3 X2_dyad[t1]  0.657  0.677  0.100  0.0996 0.479  0.781  1.70     4.71     49.6
#>  4 X3_dyad[t1]  0.804  0.803  0.117  0.121  0.610  0.959  1.83     4.43     17.3
#>  5 intercept[t… 0.0846 0.0837 0.0256 0.0276 0.0442 0.127  1.17    12.7      49.6
#>  6 X1_dyad[t2]  0.547  0.551  0.0794 0.0834 0.414  0.680  1.65     4.85     21.4
#>  7 X2_dyad[t2]  0.680  0.688  0.0969 0.113  0.518  0.803  2.07     4.17     37.7
#>  8 X3_dyad[t2]  0.834  0.841  0.122  0.150  0.637  0.998  1.87     4.36     17.3
#>  9 intercept[t… 0.0846 0.0837 0.0256 0.0276 0.0442 0.127  1.17    12.7      49.6
#> 10 X1_dyad[t3]  0.540  0.531  0.0831 0.0883 0.399  0.667  1.75     4.58     17.3
#> # ℹ 11 more rows
…
